{
    "_links": {
        "self": {
            "href": "http:\/\/default\/file\/12?_format=hal_json"
        },
        "type": {
            "href": "http:\/\/drupal.org\/rest\/type\/file\/image"
        },
        "http:\/\/drupal.org\/rest\/relation\/file\/image\/uid": [
            {
                "href": "http:\/\/default\/user\/1?_format=hal_json"
            }
        ]
    },
    "fid": [
        {
            "value": 12
        }
    ],
    "uuid": [
        {
            "value": "ad3030d0-42e6-4541-9826-ec43d6248a79"
        }
    ],
    "langcode": [
        {
            "value": "en"
        }
    ],
    "type": [
        {
            "target_id": "image"
        }
    ],
    "_embedded": {
        "http:\/\/drupal.org\/rest\/relation\/file\/image\/uid": [
            {
                "_links": {
                    "self": {
                        "href": "http:\/\/default\/user\/1?_format=hal_json"
                    },
                    "type": {
                        "href": "http:\/\/drupal.org\/rest\/type\/user\/user"
                    }
                },
                "uuid": [
                    {
                        "value": "a0e52d37-12ae-414e-9c6a-fff46560a105"
                    }
                ]
            }
        ]
    },
    "filename": [
        {
            "value": "agent.png"
        }
    ],
    "uri": [
        {
            "value": "public:\/\/2018-03\/agent.png",
            "url": "\/sites\/default\/files\/2018-03\/agent.png"
        }
    ],
    "filemime": [
        {
            "value": "image\/png"
        }
    ],
    "filesize": [
        {
            "value": 13877
        }
    ],
    "status": [
        {
            "value": true
        }
    ],
    "created": [
        {
            "value": "2018-03-23T07:46:22+00:00",
            "format": "Y-m-d\\TH:i:sP"
        }
    ],
    "changed": [
        {
            "value": "2018-03-23T07:46:24+00:00",
            "format": "Y-m-d\\TH:i:sP"
        }
    ],
    "data": [
        {
            "value": "iVBORw0KGgoAAAANSUhEUgAAAGAAAABgCAYAAADimHc4AAAAAXNSR0IB2cksfwAANe9JREFUeJzNfQmUXOdV5vfq1b5v3dW7Wq19syVbjuPYjo1DBrKZMAQSmAwkhLDMEDjDLOcwLBnCDDDMGYacYYYJCUuAk4BNyMSZxCQOsWwntiXvkmXtUqv3vaprX169N9+9r0qSbcmRrW6ZX+epqmt57393\/e7973\/Lg3+6I8RjL48f93g8v8Xjbw3DeJTHYR7neCzxcDrHUuc1ee9R+SyP\/8TvfqhzjtCbeSOvNTxv9gQuGV4ed5BwnyIRn+BR4vEcjy84jvObPH6M79\/JYw+PUR6ZS76b6bwm790pn+XxSX73i51zyLmeEEby\/ds71\/onMd5sBmzj8Yskzld4rPB4jIT7Db72Vh7mGl5HzvVWYSSv8Z3Otb7C1\/41XMa9aePNYECAxz\/vmJRnefxP\/n0vj9h1nINc615e+494HOVc\/oZ\/\/3Bnbtd1XE8G+Hh8hDf8PI8vdUxK+Dpe\/0ojzLl8kHP6e5kb\/\/4puHO9LuN6MCDC45d5c2d5\/Dmfb78O13yjYzvn+BcyVz7\/JR7B9b7gejPgzo5D\/UM+H1qvizgw9FjDMcQ5f5rHIbiOf93GejEgQbv6Wd7AI3CRyZoOmoxLDn1Bj0tfX6OxR+6B9\/InfJ5Yq5NeOtaDAT\/KSR8jEX6Gz9dMLF06u8T1+fxIRiNIBAOIB71IRfx6hP1++AwPb8ro8gRrwAqD1\/y43BOfv\/\/aT\/fysZYMMCkpv8+J\/i2f91\/76YR3Hte8dKQ86DORJqEHk2RAyEOC00gTYPr4UR\/vJBgwkIr5keYbiaAPAdOjZ1HGXfuE+nlvf8fHX8MaQuS1YsAwJ3eAN\/rvsUZSLyRznDaf2AiT8MOZCAYTAUT4vFSuY6lQRrVlo8aj2mihUm+h2WzyaME02ogHPKoVwoiw36uqsAamyeR9\/mce\/8jnfWtwm2vCgP2c0DN8vGMNzgXhn3KQxPJSzvrSIYxkIwxdbVQaTVSabTRsg395dPYWP9ciXT0i7Q6\/aRho8f1aq41220aUjMhGvciQGYZq05r4h7sk7cHH\/dd6omtlwLs6jrbnWifSHUIgmzRKh7wY6wnRnHjQtCwUSpRwy0C9ZalhIl3h8HWfYaq2iLHxewxlGhx5NJWJLoMcxBhiDSQEVXrWyiT1dO79XddykmthwE9zAl\/FWgVTRsfWcwzEvdiQ9cPveJEvWKjWmnyb71OifR4PJbsNu00mmIyXbBtexwPbcsRawZTPGDYdEr2HbaFFrRHNaAuDaIlGkkEEvK5JWgNjGe7Q4KfxBlHSG2XAh3nhP8UaOSMDXejoYIQmZ2NvVKW31rQozEQ1lGbTJAFpZuRQM8Opt\/gYpPeNefk6CW4aPDwmGm1hFp02EZLPbyrj9Bz8TIiOeygZpl\/g6\/aamCPxC3+AN4iQ3ggD7u1EtGs21J6T4MOpIDb2BNGw2ig2yBQSNOJtI0yBDdDUBMjusK+NvoAXvX6DITafhw1sSBrY2hsm8\/zoi\/mQJjQSlASaJFosCDC1xVzx+4aiJUeZYIr5WhufkCBNPsvH73+9X3y9DHhLB2aubTqXNAjSePenfCg16qhWq8iQyMM0RaNxP4YiJnpCLeRClF4SNhe0yQAbQ14bKcNCX8jAQIjaE\/VgV48Xd46GsH8ogltyftzUF8RwTBI+9CM1OnKiJKdtUZOATFRuw8AaATef5LjwOgPP18OATbzA17HG+RFX\/mwMkPi0KIiaDnb3JbArF8FYKoT+pI9Q0kFvzEtEY8C03QhLrLrfS2dLn+DQD1jNmkLPoGnxHDayNE3bsjHctTmNO8eSeMfWHrxtQJjhoWOm+aLDyEZ9NElrpgUy4qTRg3zcfLVfuFoGeGRxAy9fBLnm0YWbIUa0PYkwtmYTuGvTCDb3ZTCcyyLX2wt\/JExbHqLjJIy0XfRi0o4YhJryh492xRAN8nlpngI0UyG+FoSfRySS4HdTyKVz2Nzfy3Nn8M5NSbx1wI\/eoEdvPh2R\/9cEFXXHIGn1x7hK2l7dhzye3+TDLdcyq1eObgpHRi4VQDLixdZcDwZ7+pDt7UNPXz8S6SSv7VVH7KMT9ZHIvoCPztQQpdGTiNaEAgEkQhFCUz\/i0STi2QyiiThCfM0fiiIQCikstbwxxIJx7GVccUMvAzSfjUjAj6AGamvIAvqCDs2+57gaBnxfZ5VqTYemCPgvTFu\/Oe3Fjv4shsiAUDKBWIzEC4cRJTGj0TjCJKRpBohoAnSidKg0Hz5+zyQi8lIzROKJf2CYfkp9XDXG9Adhk3FBaleEWiTf9fGzgXAc8CcxEAtjA+OCkM+gw3bT\/2vJgg7NvqdT\/l4MyHVMz5on7bpKP0TTsyUTV+kPJhKwCTc9lPBAMIxAJIQ4XwuGg4SdhKTE8z5ieIIkRrs0RXzu9fjQZFzQlMiZ6KdttFGr1tFixByKxpSRkXAE6XRKNcVLmBqORBCLRNHL6Lg3KikLr6h5Z2Zrlj8Us\/1XfEy95ode802P57\/yIbdWM3rZ6IjbxkwUA5kMYsmY5n38Ph8iUZF4k8QSnO8nwVuEpk1CyjbapHyzZaDRaiukbBNntviamCnT60OdKEcCr3iMpocE13iLxPX6fYjF4wjwfCL1EWpVioyIkuFEroqK1tgMyegjDX\/3tT7wWgy4g2r0U2s8oZeNAIkykg0jm4qTIGESHEr4tjpbRrp+vzIgRHMiEW\/bahGiNkjwtjpeD4le7zBAIuEqJb9ZbyFMiReiy3eiJLIEZxKMBWjvw+GQpjr4JxLREH2HZE0ZbygHGMAZ9preI2n4c3y4+0rvX4kB\/rUOti43sjE\/xgazSFMyVfpoTuok8nKxSGm3aCYiZExQmSCBmGM16HRFSwhX6QNaDZqbRkPNkiCkYqmsJsZqtVCrN0hlCzYZ5KWT9Zteza76KP1BmqWGzfcaNfUFuTiRltdFQ2vqCDqDtPw\/uMKC\/5UY8K\/wOrDsGx0RSnuWPiBFHxCPi\/ON0WFG6DiDmlquk0AJopm+XA7haFQl3SQDvBrk0uy0mzQpJs1Ri58lwfmaj9wR5lH1VQvKtSqKZTKG0h+gIxZtkHRGiEyR3FGUjns4GkAq3IktnTVd2uwOKb\/5hcu9cTkGhMix\/7Aes3jl8NP+Bim9EcLEKIkfjUVIXEJNkVYSamG1hFKrgUg8hiSdcYjOWOBoPBxANBQgOqJJIeIR6bbaohlhXZgJ8b90PIL+\/j4yNuq+L+lpaonXKwGfwyBOzhPWgC7gk0DPv673SprKWsmrMgiXY4DY\/TVY0bry6Pq6WNhPK0FIY\/jgIUEqNBtLy3ksLy2jXK6gUm6gXm3C4mciREQxEjXgk+iV0JOE9JmS2QwhHUsiycNsU7ptr8LZkYEcmeTX9LSHBG+1OhpC0yW5plq9qXcvjlwY5DXWwfa8fAzw+PArX3wlA7zk1K+s90y6I04CSZayTh7IIkut0aQEO2jWKqit5mG0ygyuCCf9Hs1kxulcBXo6Yl5ARoRJdI18w8gksnTmSQyT8H3ZLJ000VK5pBFyiNfx8xxWvQaLpkpMDw0ZatSaFh21h38TyUruDuviBDqDtP1VvEILXskA4dCWdZvBhZm4NxmiXRbYWCChHM4kQckWMHJucRlPnJjCoy+cxMEXT+K5o8cxMbeg+N\/DoKtlt+UkGiWbdNA+fi9GcxIK+1BpraJSypOjFSKjEkK83V6asDAZ0ZLFHKqfHHUyu1CsoNqw1DS1Wu5C0DqPrTw+cOkLL2MAObTmq\/6vHJ20v3s9Hn4ST+xyilK6WC7igUPH8fjxOXz32DQefmkef37gOP74my\/i609P4enzS1it1dUBN+wyCThPh1tAtTJLAi5TrBtYXFjAiXPj+H9PvYjPHjiK33vgcfzulx\/Bnz\/2Er7w3Ek8PbOopq9aLlDjCFsZX9Qo\/hcIsS4++OIgjT906d+XMkCWFd+9bhe+sB57UcyKtZqbx2HgVSaEnF1eYVCWwFs357BvMIB9Q0FszQSRofmQiogaEU2jWSOaMWm6BCWVeBSJjMpwyIByaRbPTy7gs4+dxGcePYuvPH0eT714HudnZhgZVxVqHp1ewKFzc504oQnRJY9po0qI+2qSrMsQGl+og730aj+CdayJFPXOMtr9zMfeiXtG3Oh8oWKhXrdo6ymJ1SK2Z9LoJRhp1QpIR8OI0FT1SN4\/CiSNNjKCmEh8w+uQgO4SZoOmxOtT9qLSbKDcqCLitfG24QjevSmG9+xI4tYNCQyG2rglF8O7twwjGWSsgBadeIDz8jCytvjdjmDQQaxhevpyQ2j8I90\/LmreK1Rj7YeNHxglOuEl797cq4sKq\/kaielDkoFYiijn8ImTyNcauHnvPhIFeGmugfGVNvJN4nnDwFTRwfhMgxDSj76eHk09SDVElDA2TIYF6Iz7Qyb2pOkXaFbmCjRJPNKRBIZ6B7BMVHV0YpzxB5lJn6FJVTr\/VstAqflyyV9PJpDWH+k+7141yePt63VBvRkGPnES5Rf+9Bvo68vhE3fswC6aF5POMUAG2KZXpzM7v4KFmg8\/8LGPoxHvwWTDQG54FKObxlDmbJuU2H4GZnv33IiBvl4kI2HcuG0n9u3YiZ5kmA7ag\/FVLw7M1HFouYlnljw4UQpgrkg7T9had7yYIuMdR9YDLE6OUTOZPbVaQ4om6rfu2YzfeMdORIKB9WSC1JumgYsMuBvr7X54L9V6CyMMvvbv2YKfuGML\/uU7b1Y0UubroWQO27Zuwe5dO7B9tB8\/+s7bkUtJoYGFoZ4UBnNDqBD9eGMeZHrSDLKyyMSCiJOBG4c3YCDbi61btyOa6aPWVNHHx55UFrOVJr49WURqzx4s1hyUii0yPQBPIEpo60OzXtVFhXeP9eFX7rkBGaIqZz6PW\/tfM4l5rUPo\/vbuEwnb717Pq8miiayOn19cxe27RjEzN4OnHn8Wm3piNAEtdcuhWAqpdBof\/tH34ZadQ\/jdT\/wSzNlJZdjxIy\/h0MHHkeRssyk\/A7MapidmaMLm6T8qqJcKyBcKiNKhRySlQTiadaoYC5vIxQz84I5e\/ML334x37BrCaG8WA0ODuthjMwYo0+RtGcjix27bgpsGIyjklwl9ZxGBm5RbLx3o0lwZQFW7e52u0xmucpVgYttgD1544Qz++6NT+Nah55CgSwpR9SXJ1iR2f\/K7T+CZ548SndiMCxpIBuhoCT0dy8DOXARvGxtCzBdBrVxGq1phVNNGfbVABFREmUzYRc3Ys2kDjHYF5eV53Nrjw55AGfd\/7vNw6Oh\/8Pbd2LkhhzB9R5saZRINpf0OrPwU4mYdcZrDdNKHwDrvlenSXBggGyhuXN\/LuaMRDsLgzR4+Oq3y5Q+FASIRKQH1Sl0PiXHu7Ck8\/8zTKJUqyKTSGO7PYOtgHLeMZfH23YPY0k9TM7oRGwYHGbaLAw4i15OlU+5Fiz5mJGHiffvHcNe+Xdi\/naYpndEgLEUENrphFOFQAGa7QeaVFEWFAj7kFxdxfnYWi5KFbZnwkfoz1bbOeR3tstBcV6TXvH7\/SqNk2QimwzixWMG9N2\/D+++5Bfmq4G+bwbEH4VhMk2RNSrzka2RtIELtkNjgpp3D2EkfMTI6SuebgseW2k8HqUQU0XAEUTrNARI5Eo5h+3CWpm4I+7cOYs\/YIIb6BzCcIyNomiR1LYsBtVoJbUcScUEtax9frOP8Qh1JIqym34fnFsrXgyR7hAHXbcvQTL6IfKuJn33fHuwZiWC1UFM7LIc4Clm\/jUYT1AQ6QqKZSrUKX8jQRJwssuSIesY2jpBJHsxMTzC4YkRMJ7q8vAAPiZkIBnWdmCdgvOCnE05oAJcvVbFUrGjMYLcZdzQaZF4dFQZ2Ulv6nu97G3aOjGBypopUzIsi8amuJxjrHBaT9vQFnuvCAAmVWiT+oy9O4NYtQ5BV3gcPHNSqhDpv1hQ\/YPp5mPCT2IlkEoM0NxlKtRDV4w+inwyYHD+Npw4eRH5lRdZbdP9AKb+E+ZlpWHT0fkE2lkfT02I\/ZD0hFA6h5ZiaVW3wWqVyiX6lgVXGBdGonwGiH3bL1jlFMgGcWW105ry+UTFpP+qhM7g+DOgI00sLTYb9DIQGejE4MqCLJQXa3nq9rogjmUlhYMMwsiT20MiQposNMqdK6Z04eQbf\/tpDyFfoLLNZ8CWkU30Y2b4dk0uLOHL4RVRKZS3ekuAs6Jfcv0cDPV+AMUCzjWKphOIqNZHEL9Ox92Vi+PI3H8Pk9BRuv2kjDk8XcapQR7duY53HdmHxmmw0uNpxdKGIaF8fHaiFbTs3EW34cH78PGYmp1EjqkmkMuhhoJXNpukZaOcp0TPzyyRUHMuEiJbhx13fdzdNhKWpaMshfOX5br3trUhncjBbjK6bNfUPERLdY7gb+GRBXkrVlxaWGB3nMVuuIcwgrlZu4uSpObzjbVuoeQH8w0uLnGV73VPTenbHGRUGJNf1Kt2LyX+GhAMNPPj8BPF4Bv\/49QNYLlZpixtEP2dQrdVkVV5XSdKpuC7a12oEpLTT0XIBX\/zKQfzBM3O4\/+Hvwi6uotxsYHrxNI4\/+Qh+5\/7H8YtffR5fPvA8TDJKrIeX9l\/MT6lax+JKHkuU\/PmlVczS9yxVm2QQAzLHj3vuug1v33cDJlctHGQQdmG+6z8ktFn\/vbDdIX5ATMJ\/vO8APvy5b+PTj07g7HwZQ31ZTM3O4eTZcc14CuGj0RihY4oO2lInfOz0BKPYqhLmLx84iKMkVMvnwXmansdPnCeBy5gq1vHtI0uoGnTIET+dLjVB5J8mLF+k6ak0sEyHvFyTXTYOMokQbty5Bf0UhoDRwheen0S50dK9CNdpBK8rA9zhytZ3JwqgnKIupSNBL7WgiQWahyalNRL0we\/30sa3kEzEkEsmEBkYwE\/9i3vwyXftwx0be3COpswna8KxHgSjOfz83bvxv35oL\/7Nh25BYnCIcYWthJRFGEN23RC2FsmEfKWCEk1UyB\/AE6fzeOLocTRLy\/j9h47gW2fE\/Fw34ssIXjcTdOlQCevc5\/RSkYjFoe2PayBWLOaJzyUqblATPNSOHEaHepGlc8729WPTthE6VR9SER+oGGqxiKFQpjbs3bsNY2MbFFUJtDWI6WUxvkEH3+Kh0XK7CT8ZXG97cGCqgl976BTu\/cxj+J2Hz0F3Elw\/6ZeRfNO6pXRvs1St6QplNBhWxpRKNRLM0udS0zk42I9crgdNRsyHz8zg4OGTmCoQ0\/MMtuHFEp3pmdllHJuYxtNnpnF8ZgnTfD9PcyOErzeI9yn1dQZ3RR5SVxr12pgu61KMzmGyG\/Ua1832Xxgyg8Jan\/TlO9lfvYPd1QCXBTFKo2y680i1mmMr8QsM2CxLqtpiWmJYtVqYX6XJogS3aLuzNEuSz48z8PJ7A8hEorppe57Od3K5gPP0B7MrJZSrZeRXV7HCmGGFjyVZvDEle+QhkwRq2uhOxbX7L1+xuw6jIAyoX+ndV07ntQh7pTYBYeJxKbiSI8TnUjilq1mdFfB0LO7mHRlsxaNRvi8b8\/KoUjPEHKwS7SySqP0MzLYN5+ClQ51frmGl1EazZqM\/ntASRb8ZxI7RIUa\/EQZothJ8sUCiE9qWyIgiDwnEpIa0zKAr33AX9rs76t+kUb\/AgMsS8hU9GGR4fV4toO0SNpVIaiJs44YN2LNtG27evRu37N2rq1o37bkJm0Y2IxFN8TxeXX2SyrRQIETbPoI9N74Fo6MDjEhLxPV1rVyzxXG224SkVSIXBkyFogZqZyZm8dAjL+DRJ87g6Pgiji+X8PxUAc+Oz+OhF07h7\/jewwdPE0VZCAdNXW9eIPNKtQqqzSYqjA9Mn4EA\/cxKuYWmI6Xufrfkfe32ir0hBhT04ga0LDxBKdw6tgm7tm7Hjk1bsH1sC3bz+U27b8CtN9+Mt958C+65\/U58\/51343Y+v3XfTfraTbtuwMbRzXSWvQiGwlqbv1quYH5xBSVGrh7ebCbdi5HhMUppP3Zs2Yz9N+5FKp1Cw2mjLvWczYaiFdnpYkjRbZ1EJG4\/cXoO9z18UGtHdwwNYu9QP\/ZmstiSyiJAQd6dGcDeviHMzxbxjSdO4ckz4yhUaqhXLTpzHrJL0iPFVyaadM5Fy4umVFTzWnLvUg4ppYxvAhMKkoqYM+nMBnL9uqNkiDfSx+der5QIGhgbHcENlOpkLEHbXMLC8jJNwgomJidxfmISU9MzODs+Tpx+Ci+dPI5TfD45s4DpqXksM\/iR2n2PBleu45UqZr8sQzICbhGne+BVhkno6ZEiW8PUkkVpN1AmbJyam2fEGsMP3fUWvPvuvfjI++7Gj922H98\/Oop3U+M+eDNfu\/MW\/Nw778Gvf+CH8Z7bblKJX2DQVSNTxexYvKaPvqJN7Wrz3NW2zkTnY7WIimgWs+ns9Sa+jDmP3+s\/fsMN+7TkO5vMKjEmZmYxu7yI2cUFnBs\/j2eefw4nz53TUvA2Pydl4FKrb3hcgjmazDTpMGMI8PtVSny7aete3TYDKSmJEKJLUk3KxHMMfHLZHsLCEubpIKOxFCwyYm5uVqGnL2RyHn41SxYjZ6ddQbtexUHO46lTLxIB0f7znCuFAnrDstEiROddxlxhkYjoDPxWTcsRG20LdWqVSccr0XSRjHEobIWKeB3O33DRj6ClDO\/d1Arq66cFdPzHPXfd9rbjUvRaos3dvnkzUvE4Bnt7MTayEWMbt+oWIZlSNBrRAtkoTVRISsYDQU0f+2WPFf\/WneyOB7VqQx0oOkt64kilciHAz3rpO2SnSq43hyAh5vmpKZSpLZIljeWyeMfuG5GeX8WzTx2jhi3RZEW1TGRlaQnHz5zG0bNT+NLDh\/C5hx\/Bl44dxddOn8T9zxzGF7\/zLD73yMP49MMP4Pj5cwiR2KbD67ZtjbxNH4lPc+bwdY8RoG9oQvfodCr0mmSSCF6uZ0D\/vl5MYKxy3LN5ZPPxM6dOYWSgD5FYWNJfJKxf6zBDwZCaj1Aw4hI+4G6Y8Hp5gzzEZwiGa1uWVpmVKmXNQPpDATge15l6qfqyMUI2ycWjITrsJFLRGFFKGeXlPExi8PHpBWwdyuGej30cCTKnymDsq99+Bs8dm0J\/Jo6mpJGJbGKcg4f+4dRCBYeLNRyhnX+A2vrpI0fx4PEJ2cSEOAO0NrVGds07HkeFRMoPZf9xQjZrOB6NjF1Ku1DY45HiYAM9PRnO9bomBo57VgvVE1Xa4g0M9aX0288JSK2lwEWR2IBWrsnuwjAxt08lvZsrEcdlk8gS7jcoRS2rqVBTiG131lvDskeL0h6LE7vTcUb4t+D9FynRg1Im3jIxTsw+d+YMSocPYcc9t2H3LbtRI3G++MgxmhofRgey6M\/1knlpMtSR+nn00K30hzzYkQ3h1uEIdgz6sK0ni55EBtFwQsvWpTC3zDnNUzBiIWov51EpN5H2uO0tuvvUZB+ZaKiYyL5cnxuQXR8tOOL5wte+kKc5eSFNRCE1mjHaU1lnlZr9OCecEAxP4vklc2h0W8nAhadi4wUyNutaZi74W\/yClI4LpMxmZRkwoJoksFWYUpWFkEqR5mcC2whhfW0fjp6bw7m5RXz5aw+RUNQuXxQ3b+sjgYHPf+MIbbeNMTKhh45S9g8P98eQS0ewIZvE7buH8a5bd+HWnbsxkO3DYHaAkh6DI30m6H4WihWdU28yhVWax1OzFfRSi8zufUC2KsURC7v70uJxamjabf6yzkx4gUdFY\/GAz3egJ5NWRykmJEwGBBgQRRhpRsMhLQkXqZXDbZAnftVRqRcn12Skqv16DHezoWB93RYquxK9bgWzEL9WraLAAOn89Bwsat1gIoJMLIRDR8Zxipj+yMwS7n\/gIXjpEzYMDuCHbtuKbKCFrz8+jlnC0eG+uDJgMBN2mzBxLovLRQZcVWpXCn19PfRTEWqygzKZfIrnK9YILmJJIikPXppcJbQNIBIwdctTd8guSioWwpyvCM4gkaDEN+vJBGlwJY\/KgFg4fCBJQpD+ugzn8YgJcWDZtppJzanwEEb4aM9lFasl64Gyk1E20dGBySY7saHRuDjrKJK09z3JOHpTcS2gkpsTc+Qlo8q0yTEGY3Gau37xFzQz\/\/fQaSysLOPI+WkM8hy9fjKY9vrOnTmkAjb++pFTOHzyPKhCKJWaWv9vmi1MMiA7MzOvKQeDglBYXcbs3DTev2s3fvG971KNTkZNvHCesHixhc29SamHY0DmlumH+X6azGs2mrpRQ8rcRfOHBwbV56wXE+iALzIg2Zt5FLLR0LLVlLQkeJF9V7SfZUqtwMGGSDkZUKUzK9OmChyVPbqm6df9u8KAOFVZnHRPJonebJo3H9Q9XBJPyGY7qemUquSG3UI\/JS0diEA2BuzMZIjZLRw+M6v5mxNzCxiI0xxSUoOJLHZv6sNQ3IP7HjuNJ4\/NYplEXykQotLMSLXdarmGianzOHHuNE6en0K4FcA\/28244ZabMEJTdYyI6sCLS9iaolSbDMro29DZDSnVc6LlbY9AZjc48xFgxCJxIsExpJKZ9WCCLDpfZMATTzyxUlitHKhJ3zXbteliWlrNhnYuETtvEenI42qhTCn2I5lMKAQVe5+m3UzI7nY\/4ahUOOg2UBslRsIrxTLytMOSVliihBf52lI+jyH6hIjfq7X5SdlYR417fqGOk2fmcJbmpsCpDaRjDJ68KLaA\/SNp3LM5i2dWyjhVaqHRIHpablIbLJ6vhqPjK3iWvmQhX8fGxAgalRK+9cSjlPwlPHS6hOEITVcyjUq9qcuN5XZLKZGJ9zBmceMBt2mUo6lsSbkI+Bgb2YB0Kr3WTJBOW4ULDJCxUiz9VaUmO8wF0fBotFCjw2zyuUBRD9VTXqtQQmWnudRXijb4vB46TnfzXLMu+3QbaNRqWi7SpC2XbaSlSlVNRLlaQQtuKcmgpCtsW3vApfwXy9Cemq\/j9LkpLDCUsImSJqanyTR+n3D19i1ZfPSWHFb5uTPE+NPU1LmWjalSG5NFG8fnSEMrgNEMcb9RxbfOzeI7E3UkKTBvH+3FEgVLsqGVVl37zIViaaKfIO+3qR24BGCIzxItbVHjrbZsjwrRHI2gtyfn7jdeAybwHF\/sPr\/AgLLd+FKjTpKRyOJcZb9WhfZWJiFNMmR6srHNkfZKnKS8Z8qGOZoZ2dxcJ7GLNE0VBjxCeGFmsVIhE+v8Xo2MbSpsrUuvHt7cIKWrIAyjxkXEbHndXYoil4+N066fnUCe0t1DexwgnJEo\/PhsAfsHUviZvTndWCHhVDYVwM6NKezZnsVIMoBN0TTCcT+enT6Pv3zqrJ7zncOj9CcOTWpD45N5CoKMLCGrxWhY4LPAadFaNUN8T6C4C029qvHZrOSxhjWuuMbmsHKL97+KAQ888ECpYTW+XmuR+CRWrVnX9gAG7aGkKSTYkqhUOhFK9ylR4yAZIDFAmcworBZ1T25FVp6oOeVaUyGnFEO1LbdBm8QU8wy+UmTooFQp8FwVp6ULMv2+6IUZ3rpnK27cPIYT4+fR3xPB7g1Z7WyyWq0TKVVx55Ycfnl\/H0ZjJrYNJ7BlYwZ9BBH7+xPoiwZRp6SWmrIHrIH9qZwirdmKWwTWpOmZq5EBjIjDEnTR9Am8tjUxJ2x1\/5Y5yecdaZ8gHVokIKXZ7O8fYDxx0Tm\/gfUz6blUeRUDZLQd569EkmVJT4qc3M6zsnvRoha4myHslktMQUnUGM37FEtVNRNSdyM9PMuUekEV4qht7dcGjYalW8lKvoA9tMU9hH41XstqNxVRxXwX9+m+94YN2JpL80YDODk+ib5UBBt7I5o4k8qG4zMruGEkhXt354h48jg+OaPVbmkGYIutVZwlk2ls8IHdmzCSSCjB1bzwHpbo00o0N2E62RaZIZqp0kyg0O4EYBIpd4NNR1MqtqI3j+mjw45psjIWiV1gwusZ\/PyfXvr3yxhg+s2v0M6fFFsv3UbEn0pwJUM204k0aOTbbKm0S\/pYTE6hVEKDxBHtkLyONNBwNQadzicBzR8JoorztY2xFM2BpUx0FOo6uvGuK03SlHWYBL9xdEBAC558aQr9yR7EfR6U6D\/mGc2eWihhUzqBu8f6cPpUFZPzNIF8b6lRwfGVvO4F60tGOGdLGS0pFimWmyzW4Q+nkYonOOeGpilEaOpNSwWoIU3muvSg1BudjmZ+MT2ypZXSJGmZ\/v5+ddLdlspXOU7xePCKDDhw4IDVqNb\/hxBPIKlkOWW1yUvpaGnrgIYWtNYYREk7gJbk8GviJyxFEBo7iNQ7bkWCxA3+oNvBSia+IPU6toWt\/VkUyEBRe8nDeIl0yhULtw\/24K7BCI4ePaFAYKwvje0bhzGxUMHDh6cxOpzTxaDF1RoW8yVMExHduXkI771xBCfnS7qIU+e8qzIvmk\/ZZV8Xk8m4V0oWF4slzBE4SGAmGikZ3DIBQrkuwaTNuduarW1TM9q8J+lXKitoXpLJb5i6i18ETO5Nalj7+gY1vYGrZAI\/8zsArEtfe9WifLFW+DxjgRl3kcYlfI32c7VQQqVS08BM6je1MSrctVTJ+bh\/O8o4OeR1cbqys93vc3NDeULQbQx6BglZJVffsi1dCy4Wm7h53zB+5j034Z5NGUwQUn7zmdMYzKVoVkK4YUMcB2l2TsxZ2NyfRqNNH8P4YYXEfGFqHj9w8zB+eP8glopV135TSw0pQbequsJmaSMQDxYpOD4p4JUonpor85b8T0V25RMwiD8wlSQeFSZlCs2VJcuXtE8ScErMo35QwAM1YXBwAyKRqwrYZnn89StffBUDpqamCICa\/01hGA+BkSolPISoIoHSRkaGOCmJD9Dp+ymLHxIrCOEFukpAEwn6tUJZgrE2mbmvf1B3pjdEymSXI78jMcfN2\/swkA0gKLmnhA8Hnj1Lh+lo7+eNvTHcPhzC2dk5QggTm6kpoXiKNtzESrmB2cUS3vuWrRjOJVAp1RCWNDnhcUTQm+k2NxXmL1Oqe7KEk4w7JJUiDUFcQTE13imsFhRai2bI0W666x+C9qRje5UCKL2poYW+LXXaMQafognh8EWfcDnHzNd\/\/5XSf1kGyPCHPH9MFTxRpZRI1FuuV2gb65qC9qmzdAkuN9DWlLNP\/YM8l6GdrHjzUS0rD2oN\/kJ+Fb00R7uyfVjgOcW3yc73esu1zU0SUuz+cC6OfVtTeHF8EU8dm8PIQBLhUBTbB2IYzYIOd5nXC1LjHMwU6PwJBBZJ9MlFoqNbd5DwDsqMjENe6aJuakd1ScotE6m1vSGEqAGC7AReCvEt7awighVQyD2\/soTlQl7Nqqnddr0qIBPTk1hcXtJiAvEFpulTkGLz5KlUAkODg5oJ0LW2V2vCaR7\/+3K0viwDTp8+TRPc\/Hkp5RYii63vLtLLBcQxC7GF6IKONPmm6wTeC1IgJknazsj7kr6bI1LaEI0gF\/Cq0xN0IbX6slxIQ4DDpxZpFryEjFH0ZSJ6nb975BhxusloNUZi8T1KGSGAJtlWV8uYzpcxvlTRNefjDN6E8bfu24l8vqJS72cwlo76sEpJLnK+0VCMdv5il95Ob3tXag1oElLw\/3KBkJqQVwLBpYKUtBRoxmwEKEyCpLoEFoGU\/LBodCaRRH9fHxKE1x7j5U3C+fyjcMOWq2OAjLm5qQMMSj4vTtg0u5lDQ\/sqiDNW5ytoR1adyADRAnHeEoRJnl1z7LLRivOoibqSiTszWVkJ1DS2qatWPgRpmnbvjODQS8fxjwdPYrA3jQQJtWM4iGcnF3DoxWn05zLwkfgSjQ+SGbJ96ezMqp5botg5EqhYK+HY8dMY7ssim+nBycm8uE5s6Y9qrJGnuZIuK61WTQXHpQzUz2kjQNugpDdpKn26lrBKuLuwtKToTmy9pNSlGZSjfSUsNb9CaNkm5XEMbZOWTWUVosbpoLu\/W0At+wyffudKdH7Nyjh\/Hf+WvmC2QbsokxZ1ldREdwK249p7WfaTvE9VkY2NoD+gtZdezaraGsVGeakNNCWMOdFP5CDxxFStiI03xLFxk4lEBPizbx7GIk1KjhrQm\/IjQ2u3XCSmJ3EWa7TjVYcSHUIPAytHanwsR7upmJLgIDHkNwRWVqZxxw2DCNJ5H5tfQdjbRjLm43W9FJCmwlJF94LYLNckC9FFi0XT26Ltnehfsrd+anaj7lZrCELq2n5Xg9udmMGUvIkGb+lECjlqQiyqPmGO9\/\/vXovGr8mA6dL0cnm1+JP1etMWSe8ogWtiJDVNu+knocUcScpaiB3QXj5ezQ2JggrKKDGqlrYDN2Z6GaDV8dVzx\/CHzx\/EN2ZOYXhUUsHAzo1pHKWT+\/tHj6EvEUMPj8Fe6R9n4OzEDE5OL+HMfFnLDgMkbl86TjgZRDYaRm88qkw3\/V46YZ6M2nn79mFIU5UZBn4DyYCCAIWVnXInw3BBhAqT09YmTq79hjJPhjBEhhBdcmRietq25IgaHZNsdMyRo+iw1UlnJFNJDA0N28lo9Cf45mtuNvuetaF1q\/KtYCj827IurE1UO91SPbTJHk\/XkbkTlQUYXawnxvYT\/ZgMnCT6rZLCowzjn52bwie\/+yi+cOIEZpqEtlK\/WTOwZfNGSk5A2\/I+\/PwUg60mCcxomQHbS1MrODk7r1nYAp3r+FKZ0XBVa\/+zqShtbxTxWIIaJIVWNG28fo3aIT9tMtaTUrgZD7nNPkSGutlO3Zcmw3E1QYgqTBHnLMFYW0CG1dJDexTBUQTUTVfIJm95XaovJLUtUbQlhwartqys\/XahXH74e9H3qopzi8WFT9GmHxSJENXVtC3cXzAS6Kkl4BoLeNXuyyKN3IiIhcYCnNCRxTn8l+eexLTmYdzzVniOl45OI0r7I5UVY2GPpoun81Xd3eILmJhaLuHERF6SH5CUUrNpoyidtOqNzvq0iYYEdIq86CClp1xQnKXbDlmbQkms0olqNZq3uyDCUbQmc2w0GhpcSusE0XYhtgAIQUNSNSGmSO5NwIDPH+zcX9fROnoOiSvcdXL74ScPPf6pq6Ht1VZHSw75Q7V6dVmqDWyrpTZRNk9YlrvNVNLSspDvoaqHAl53i4\/4brk5IorlpluC6ia6XA5I\/cGzR6ewwkg3m4wzqAliNGPoDzbkaY4m54pqwgo1SXlY0tZBm3g06MTLNbddZcOxNGp1+0j7JUrUxaM6CSzNWZNEVT6PpY36JMwSpCwS78AtKhCQIaZJCBqSNDThttSfCqMkJSM9qGXHjmV3ui9K1Z7jFiPYvI+mze\/oT904GvcQGa20bPMn0a3LWSMGYHxufLxer76XzqlodMoYu9UDptb9uO0lw\/6A7nCR1yR\/JDC2QFgnQ2uHcLExIWUTc0tFnB9fpePKaQPXZCSI8\/MFnJ1bwRQ9r2zEc1GWBHad3JGYA9vtPSEraWJatOtJW42DlrGU6AekQk4Yngg4DMoc7ZouTFLzbbvwU2y6CJJEwFHZU8Z5WZ3MqGiBR6\/t1bxRo9MiU9Ceakzn2oIM5d5o\/0tWu\/Wuw4cPTl0tXV\/X\/oBarfikx\/T9CInb0s62nIwsYivel+eyPhBwezS7f\/sVzlVqxcuczdB2BAYRyOxMUTsibhoZQioWwfhiEWcXV9EypJebl4gJNG82whGvZmSV+TC0zlPyNxJRS+83SR2ICavJmgbhoyQMBVrKL2yEqZk1zXzaHeFxBUhaY4akr5yuyvE9yy0esNru54SlktmV5KSivUpFixNktDtpedEkEt+iJr3\/6aefPvR6aPq6N2jMz098yzQ8H+fTWWFCkASXxWzB9WKDPV7314w8Gia6ZeK4wg8NatYl4MP07AqWl4vo6cuQ6D6cWyjR2da0SEC6WanTkLy9\/EhP0EVGgjgkVSFmSBZ\/ZLFF0tpVSmaR5qtUbWq2VpKb0iEpFfKpbdecD6AaKprlF3suL9iS4a1w3rZbuOVAtU40WGINQXyaYhfTC9eMdZ255o2arY8+++yhb79eer6hHTJzi9P3URJ\/3R8ItMWJ6YlIHHFa3WhYmCOJvHK55H7pMlt\/JMvYbNexIunlUwuYnJzF4TNLmC1Sxeuy8CMMcHQbkiAu23ZTHVbTIJFbWKVvKNE3VBqy0GJoIbDdyeBLtF2SRkCCGegDIoGmaqZMw1IfZqsZCvrDZJyjHXuFKS3DbZnswmyfVoN0kZ5ATHnd0ZWztjpoMoIvNz72wotPvSrRdjXjjW5Rqp09e+LPaO\/fRymqSlgijivol+ynVwkmSKjOG1wtdc2PcfFBYayugejKG9UGMzNlHlMM2hr6s1OiUT7VLI\/bz9l0qxZk75iQ2abzq5L4Rel+WGtoPl+CKV1ClE5a4m86aEfOFfMaei6RavuSxKEsv0qTWF331vkI2jI0vhHUZ3QQlGiCcLOLntzDqLbs1vteePGFP3uDdLy2vfjPHXn6wWarcReZsOjXtLNXf1zBp9lDny5TVmuviEM6aRjRk4DWrBMlOQ0srLQo1cCWwQhC+iuG0mRV1mZdRy+23mP4lRg+OlWf31FTJ+0myyS+xAgamRqug5Ukml+znuIjDEU4Bhrac1QiX0VA2nfOZZKknaWALMB4R2y9S2goM7UVcqepeLc0k2Zniiy86+TJlx68DGmuelzzJr0TJ158mm5gPyXrEZEaQRlyY6KeS8tLuOyeK+fiJr0Ab6zKGyxREU7NtTCcDmFzfwCRoCutolmi9u22RzdVeDTWkPJFN+HXaDp0uNBiL9nwp5lKweSd5KAQUxhiOk0yURpweN32BwY653fbHktJjmW76wPSP0egrbxP6N1ZOHLLMj3u7wx8h\/7+bbQCT18r\/dZkl+TRo0cnNm7Z+A6vx\/t7fq\/PEcJINcRqx\/5f3ADXGYZrpyUT4yE0TATDGEgHcHhpFc9NrGLXEKPbsF+LpATmyW+Ieb2GEqVG5yq+QQpvDY\/s+ZIUg6OxgXTgbTsSEPqgC9G4IK1ksqNbMmRNQmCsNIi6UGQs5lAkXX4YQpdWW1r9IBu9mzw07FQmiB+3PzkxeebumZkzk2tBuzXbpnr\/\/fe3\/+HAN3\/ValnvodTN6nJlpXqFT3fkX9ICpHAkHNQKann16Zk6CnUTI9mgmiGrk\/r2eG0NdCTmklaXrtM3NN0hAZHATUn6WURIkkbQYFEWwigMsi9gpmpqBOvj56WYQNPsnWIzJYRCU3eNQ\/yIoBzJ+KrTdWHntOl4SPhxiXDba0W3Nd8n\/NVvP\/igU\/fuWF5d\/WypUnqV\/XHXuB2VfomhZduQ5NKX5ccXeF\/y+uNny+hPhJCKR9VhugQwtPBXiN5qyw+0GbqbXppum\/rDCx5tMyDOWFobN23VLzeiJdekTUGjQ1xNk0vPxJblRsWd\/JCU0KgJ4iiVSl1z41DqP2e1a7tmFieumFZ+o2NdNmrf\/637Vw8+8+TPkrx38c8jl77XjYTlpss0CumeHo1AT8zNaMWSJLcm6FBPLbWxgWZJuqoIccVmyfZWX8Cjjl7LKJvyewKy5ivLmlAbLtExLtmJL2kD07EIEBytexUiyxBc313n0IjYal8ACJVKubtUeYTnuatQWPx4Pp9fXQ9arfdO+cd43MAb\/AQfL4Tn3U7xAZqUfYNDWJpdwqlGxW2k2iHcd08tadItGw8oQtGfO9SAzkYoaGqdjjbcdluAaK1oQ35fRpKDnaIA+SdbYiUTGgp6NZfjk507kvcX09NJjWhQJbUTNE\/SRYt\/T5le8xMr+fkb8vnFx9aTQNerVcEfkQljPD7C58e7y3W3D48iQc\/32Mw5lf4O+kRMnCVNxzPny7T7hv5idkVTAe6ih9jqAJngJ8F0gaTtLrJUtbyEtlt+1Nn0dhqDy4+ABpDxu8uHtuHTCLi7HuAuLDnqsyvV8vG2Y320VM6PLS\/P\/dH1IMz17BUhNP48ib+Dj\/eORKN\/+5ZEb\/XpyXGcsxvo\/jab1hfJTxrycanh4JkZSxFKZyVCU94CGwWVuD9nYihUFecqTJN8vEBg2+o0XTIdXefdFDERJ5pqON3fCegkBx2nSkbdZ7eteyvl\/I5KqfAXnblel\/FmNev46kS5\/KG5hWbPk\/lZ6ad\/nxeesjgHRyGq\/AgzCUuJXSG+n1htIRb0u9uX5Ed8JBHo6FaSzq4eE9EImRRwazyFQRJ8OboCQ6QUiGBLfxIbom5bHPqQMrXgPr75gUjE7FlcnPxgPr\/01TeDEG9atxQZfzLzTJWeTX6B9INNx05Rxu8w4fkUhfbJpuG0G\/KTI3xTcvuzlRaJHERfT1R\/gFOa\/AlIkQ3fsmAuGwil44rkN4o0SyuVJkpNS32CYXrbgaDvyf5o87fpbu+cX5xKLS1NfnBlZfZLMzMzV8LK12W8qQx4xRBD\/l2LgQ5V4baSY8foY\/d5gR+Pe7y\/VWo5952drjxGhhyJhI3xaMizLD\/WLATmd5ZbbWvccdpHGLQ9ZtnWFwvV2idXG80PluqVGystO\/bRv3n2tq+dWPhN1Ba\/g8sUSL1Z4\/8DWwxNYnbEODIAAAAASUVORK5CYII="
        }
    ]
}