{
    "_links": {
        "self": {
            "href": "http:\/\/default\/block\/8?_format=hal_json"
        },
        "type": {
            "href": "http:\/\/drupal.org\/rest\/type\/block_content\/contact_agent"
        },
        "http:\/\/drupal.org\/rest\/relation\/block_content\/contact_agent\/field_agent_image": [
            {
                "href": "http:\/\/default\/file\/12?_format=hal_json"
            }
        ]
    },
    "id": [
        {
            "value": 8
        }
    ],
    "uuid": [
        {
            "value": "9985eda6-8094-4618-8625-9e0bde24ae43"
        }
    ],
    "revision_id": [
        {
            "value": 8
        }
    ],
    "langcode": [
        {
            "value": "en",
            "lang": "en"
        }
    ],
    "type": [
        {
            "target_id": "contact_agent"
        }
    ],
    "revision_created": [
        {
            "value": "2018-03-23T07:26:45+00:00",
            "format": "Y-m-d\\TH:i:sP"
        }
    ],
    "status": [
        {
            "value": true,
            "lang": "en"
        }
    ],
    "info": [
        {
            "value": "Contact agent",
            "lang": "en"
        }
    ],
    "changed": [
        {
            "value": "2018-03-23T08:19:01+00:00",
            "lang": "en",
            "format": "Y-m-d\\TH:i:sP"
        }
    ],
    "default_langcode": [
        {
            "value": true,
            "lang": "en"
        }
    ],
    "revision_translation_affected": [
        {
            "value": true,
            "lang": "en"
        }
    ],
    "field_agent_form": [
        {
            "target_id": "realestate_webform",
            "default_data": "",
            "status": "open",
            "open": "",
            "close": ""
        }
    ],
    "_embedded": {
        "http:\/\/drupal.org\/rest\/relation\/block_content\/contact_agent\/field_agent_image": [
            {
                "_links": {
                    "self": {
                        "href": "http:\/\/default\/file\/12?_format=hal_json"
                    },
                    "type": {
                        "href": "http:\/\/drupal.org\/rest\/type\/file\/image"
                    }
                },
                "uuid": [
                    {
                        "value": "ad3030d0-42e6-4541-9826-ec43d6248a79"
                    }
                ],
                "alt": "",
                "title": "",
                "width": "96",
                "height": "96"
            }
        ]
    },
    "field_agent_name": [
        {
            "value": "Caleb Cennedy"
        }
    ],
    "field_agent_phone": [
        {
            "value": "+1981 782 268"
        }
    ],
    "field_social_button_email": [
        {
            "value": "test@test.com"
        }
    ],
    "field_social_button_facebook": [
        {
            "uri": "internal:\/",
            "title": "",
            "options": [],
            "lang": "en"
        }
    ],
    "field_social_button_linkedin": [
        {
            "uri": "internal:\/",
            "title": "",
            "options": [],
            "lang": "en"
        }
    ],
    "field_social_button_twitter": [
        {
            "uri": "internal:\/",
            "title": "",
            "options": [],
            "lang": "en"
        }
    ]
}