<?xml version="1.0" encoding="utf-8"?>
<!-- Generator: Adobe Illustrator 16.0.0, SVG Export Plug-In . SVG Version: 6.00 Build 0)  -->
<!DOCTYPE svg PUBLIC "-//W3C//DTD SVG 1.1//EN" "http://www.w3.org/Graphics/SVG/1.1/DTD/svg11.dtd">
<svg version="1.1" id="Layer_1" xmlns="http://www.w3.org/2000/svg" xmlns:xlink="http://www.w3.org/1999/xlink" x="0px" y="0px"
	 width="47.5px" height="51px" viewBox="0 0 47.5 51" enable-background="new 0 0 47.5 51" xml:space="preserve">
<path fill="none" stroke="#333333" stroke-width="2" stroke-linecap="round" stroke-linejoin="round" stroke-miterlimit="10" d="
	M43.896,33.5H5.994c-0.791,0-2.744-0.198-2.744,0.592v1.712c0,0.791,0.745,0.634,1.536,0.634l0.641,0.025
	c0,0,5.928,12.037,12.445,12.037h14.146c6.517,0,11.467-12.037,11.467-12.037l1-0.228c0.791,0,0.548-1.578,0.548-2.369
	C45.033,33.866,44.688,33.5,43.896,33.5z"/>
<line fill="none" stroke="#333333" stroke-width="2" stroke-linecap="round" stroke-linejoin="round" stroke-miterlimit="10" x1="13.308" y1="47.587" x2="12.915" y2="49.043"/>
<line fill="none" stroke="#333333" stroke-width="2" stroke-linecap="round" stroke-linejoin="round" stroke-miterlimit="10" x1="36.59" y1="47.583" x2="36.968" y2="49.046"/>
<path fill="none" stroke="#333333" stroke-width="2" stroke-linecap="round" stroke-linejoin="round" stroke-miterlimit="10" d="
	M34.314,15.5c0.008-3,0.02-0.781,0.02-0.867c0-2.107-2.688-4.121-6.002-4.121s-6.001,2.167-6.001,4.274
	c0,0.086,0.011-2.286,0.021,0.714H34.314z"/>
<path fill="none" stroke="#333333" stroke-width="2" stroke-linecap="round" stroke-linejoin="round" stroke-miterlimit="10" d="
	M40.25,32.5V10.003c0,0,0.023-5.697-5.674-5.697c-7.473,0-6.454,5.409-6.454,5.409"/>
</svg>
