<?xml version="1.0" encoding="utf-8"?>
<!-- Generator: Adobe Illustrator 16.0.0, SVG Export Plug-In . SVG Version: 6.00 Build 0)  -->
<!DOCTYPE svg PUBLIC "-//W3C//DTD SVG 1.1//EN" "http://www.w3.org/Graphics/SVG/1.1/DTD/svg11.dtd">
<svg version="1.1" id="Layer_1" xmlns="http://www.w3.org/2000/svg" xmlns:xlink="http://www.w3.org/1999/xlink" x="0px" y="0px"
	 width="53.25px" height="40.75px" viewBox="0 0 53.25 40.75" enable-background="new 0 0 53.25 40.75" xml:space="preserve">
<path fill="none" stroke="#333333" stroke-width="2" stroke-linecap="round" stroke-linejoin="round" stroke-miterlimit="10" d="
	M50.637,8.944c-0.738-0.562-2.882-0.628-4.809,1.448c-0.381,0.409-0.436,0.745-0.705,0.663c0.002-0.102-0.072-0.112-0.081-0.216
	c-0.4-4.488-3.294-8.59-7.472-8.59H17.403c-4.177,0-7.487,3.736-7.492,8.799c0,0.164-0.059,0.164-0.055,0.326
	c-0.334,0.111-0.207-0.503-0.616-0.913C7.164,8.386,4.854,8.418,4.059,8.979c-0.417,0.295-1.423,1.682-1.318,2.16
	c0.106,0.488,0.898,1.269,1.337,1.556c0.916,0.6,1.797,0.09,2.204,0.717c0.289,0.447-0.082,1.075,0.002,1.405
	C5.827,15.453,5,16.181,5,16.995v8.275c0,1.769,1,3.326,3,4.243v3.37c0,1.537,0.053,4.366,1.194,4.366h4.411
	c1.142,0,0.396-2.829,0.396-4.366V31.25h24v1.634c0,1.537,0.25,4.366,1.391,4.366h4.411c1.142,0,0.198-2.829,0.198-4.366V29.94
	c3-0.791,3-2.582,3-4.67v-8.275c0-0.703,0.18-0.881,0.352-1.59c-0.006-0.016,0.623-1.391,0.988-1.998
	c0.377-0.627,1.313-0.121,2.162-0.721c0.408-0.287,1.2-1.076,1.3-1.564C51.899,10.645,51.023,9.239,50.637,8.944z"/>
<path fill="none" stroke="#333333" stroke-width="2" stroke-linecap="round" stroke-linejoin="round" stroke-miterlimit="10" d="
	M42.533,12.849c0,0-10.566-0.566-15.065-0.566c-4.499,0-15.068,0.818-15.068,0.818"/>
<path fill="none" stroke="#333333" stroke-width="2" stroke-linecap="round" stroke-linejoin="round" stroke-miterlimit="10" d="
	M12.4,12.849"/>
<path fill="none" stroke="#333333" stroke-width="2" stroke-linecap="round" stroke-linejoin="round" stroke-miterlimit="10" d="
	M17,22.793c0,0.805-0.652,1.457-1.457,1.457h-5.086C9.652,24.25,9,23.598,9,22.793v-2.086c0-0.805,0.652-1.457,1.457-1.457h5.086
	c0.805,0,1.457,0.652,1.457,1.457V22.793z"/>
<path fill="none" stroke="#333333" stroke-width="2" stroke-linecap="round" stroke-linejoin="round" stroke-miterlimit="10" d="
	M43,22.793c0,0.805-0.652,1.457-1.457,1.457h-5.086c-0.805,0-1.457-0.652-1.457-1.457v-2.086c0-0.805,0.652-1.457,1.457-1.457h5.086
	c0.805,0,1.457,0.652,1.457,1.457V22.793z"/>
</svg>
