{
    "_links": {
        "self": {
            "href": ""
        },
        "type": {
            "href": "http:\/\/drupal.org\/rest\/type\/paragraph\/product_info_documents"
        },
        "http:\/\/drupal.org\/rest\/relation\/paragraph\/product_info_documents\/uid": [
            {
                "href": "http:\/\/default\/user\/1?_format=hal_json",
                "lang": "en"
            }
        ],
        "http:\/\/drupal.org\/rest\/relation\/paragraph\/product_info_documents\/revision_uid": [
            {
                "href": "http:\/\/default\/user\/1?_format=hal_json"
            }
        ],
        "http:\/\/drupal.org\/rest\/relation\/paragraph\/product_info_documents\/field_documents_link": [
            {
                "href": "http:\/\/default\/file\/8?_format=hal_json"
            }
        ]
    },
    "id": [
        {
            "value": 14
        }
    ],
    "uuid": [
        {
            "value": "1fa0cc35-3309-4811-8d77-71b496a02bfd"
        }
    ],
    "revision_id": [
        {
            "value": 14
        }
    ],
    "type": [
        {
            "target_id": "product_info_documents"
        }
    ],
    "langcode": [
        {
            "value": "en",
            "lang": "en"
        }
    ],
    "_embedded": {
        "http:\/\/drupal.org\/rest\/relation\/paragraph\/product_info_documents\/uid": [
            {
                "_links": {
                    "self": {
                        "href": "http:\/\/default\/user\/1?_format=hal_json"
                    },
                    "type": {
                        "href": "http:\/\/drupal.org\/rest\/type\/user\/user"
                    }
                },
                "uuid": [
                    {
                        "value": "a0e52d37-12ae-414e-9c6a-fff46560a105"
                    }
                ],
                "lang": "en"
            }
        ],
        "http:\/\/drupal.org\/rest\/relation\/paragraph\/product_info_documents\/revision_uid": [
            {
                "_links": {
                    "self": {
                        "href": "http:\/\/default\/user\/1?_format=hal_json"
                    },
                    "type": {
                        "href": "http:\/\/drupal.org\/rest\/type\/user\/user"
                    }
                },
                "uuid": [
                    {
                        "value": "a0e52d37-12ae-414e-9c6a-fff46560a105"
                    }
                ]
            }
        ],
        "http:\/\/drupal.org\/rest\/relation\/paragraph\/product_info_documents\/field_documents_link": [
            {
                "_links": {
                    "self": {
                        "href": "http:\/\/default\/file\/8?_format=hal_json"
                    },
                    "type": {
                        "href": "http:\/\/drupal.org\/rest\/type\/file\/undefined"
                    }
                },
                "uuid": [
                    {
                        "value": "7527876b-8d6d-4ac0-9465-a0e4e2a9d87a"
                    }
                ],
                "display": "1",
                "description": "",
                "alt": "",
                "title": ""
            }
        ]
    },
    "status": [
        {
            "value": true,
            "lang": "en"
        }
    ],
    "created": [
        {
            "value": "2018-03-22T08:48:24+00:00",
            "lang": "en",
            "format": "Y-m-d\\TH:i:sP"
        }
    ],
    "parent_id": [
        {
            "value": "5"
        }
    ],
    "parent_type": [
        {
            "value": "block_content"
        }
    ],
    "parent_field_name": [
        {
            "value": "field_product_info_documents"
        }
    ],
    "default_langcode": [
        {
            "value": true,
            "lang": "en"
        }
    ],
    "revision_translation_affected": [
        {
            "value": true,
            "lang": "en"
        }
    ],
    "field_documents_title": [
        {
            "value": "Test PDF Document"
        }
    ]
}
