{
    "_links": {
        "self": {
            "href": "http:\/\/default\/block\/4?_format=hal_json"
        },
        "type": {
            "href": "http:\/\/drupal.org\/rest\/type\/block_content\/header"
        }
    },
    "id": [
        {
            "value": 4
        }
    ],
    "uuid": [
        {
            "value": "7228bced-ea46-4c02-be68-d438a3db8551"
        }
    ],
    "revision_id": [
        {
            "value": 4
        }
    ],
    "langcode": [
        {
            "value": "en",
            "lang": "en"
        }
    ],
    "type": [
        {
            "target_id": "header"
        }
    ],
    "revision_created": [
        {
            "value": "2018-03-22T07:27:17+00:00",
            "format": "Y-m-d\\TH:i:sP"
        }
    ],
    "status": [
        {
            "value": true,
            "lang": "en"
        }
    ],
    "info": [
        {
            "value": "Header",
            "lang": "en"
        }
    ],
    "changed": [
        {
            "value": "2018-07-10T07:56:44+00:00",
            "lang": "en",
            "format": "Y-m-d\\TH:i:sP"
        }
    ],
    "default_langcode": [
        {
            "value": true,
            "lang": "en"
        }
    ],
    "revision_translation_affected": [
        {
            "value": true,
            "lang": "en"
        }
    ],
    "field_header_logo": [
        {
            "value": "sweet home"
        }
    ],
    "field_header_menu": [
        {
            "uri": "internal:#overview",
            "title": "Overview",
            "options": []
        },
        {
            "uri": "internal:#features",
            "title": "Features",
            "options": []
        },
        {
            "uri": "internal:#gallery",
            "title": "Gallery",
            "options": []
        },
        {
            "uri": "internal:#more-offers",
            "title": "More offers",
            "options": []
        }
    ]
}