{
    "_links": {
        "self": {
            "href": "http:\/\/default\/block\/6?_format=hal_json"
        },
        "type": {
            "href": "http:\/\/drupal.org\/rest\/type\/block_content\/footer"
        },
        "http:\/\/drupal.org\/rest\/relation\/block_content\/footer\/field_footer_offices": [
            {
                "href": ""
            },
            {
                "href": ""
            },
            {
                "href": ""
            }
        ]
    },
    "id": [
        {
            "value": 6
        }
    ],
    "uuid": [
        {
            "value": "5e5b82d2-c01b-4221-8a6e-fd5ad3e11e62"
        }
    ],
    "revision_id": [
        {
            "value": 6
        }
    ],
    "langcode": [
        {
            "value": "en",
            "lang": "en"
        }
    ],
    "type": [
        {
            "target_id": "footer"
        }
    ],
    "revision_created": [
        {
            "value": "2018-03-23T02:47:28+00:00",
            "format": "Y-m-d\\TH:i:sP"
        }
    ],
    "status": [
        {
            "value": true,
            "lang": "en"
        }
    ],
    "info": [
        {
            "value": "Footer",
            "lang": "en"
        }
    ],
    "changed": [
        {
            "value": "2018-04-16T09:37:21+00:00",
            "lang": "en",
            "format": "Y-m-d\\TH:i:sP"
        }
    ],
    "default_langcode": [
        {
            "value": true,
            "lang": "en"
        }
    ],
    "revision_translation_affected": [
        {
            "value": true,
            "lang": "en"
        }
    ],
    "field_company_info_text": [
        {
            "value": "Founded in 1976 to provide independent brokerages with a powerful marketing and referral program for luxury listings."
        }
    ],
    "field_company_info_title": [
        {
            "value": "Sweet Home"
        }
    ],
    "field_company_link": [
        {
            "uri": "https:\/\/example.com\/",
            "title": "example.com",
            "options": []
        }
    ],
    "field_footer_copyright": [
        {
            "value": "Copyright \u00a9 2017 ADCI solutions"
        }
    ],
    "_embedded": {
        "http:\/\/drupal.org\/rest\/relation\/block_content\/footer\/field_footer_offices": [
            {
                "_links": {
                    "self": {
                        "href": ""
                    },
                    "type": {
                        "href": "http:\/\/drupal.org\/rest\/type\/paragraph\/footer_offices"
                    }
                },
                "uuid": [
                    {
                        "value": "9986bdb4-5f55-4026-832d-2a8b0d5c7885"
                    }
                ],
                "target_revision_id": "15"
            },
            {
                "_links": {
                    "self": {
                        "href": ""
                    },
                    "type": {
                        "href": "http:\/\/drupal.org\/rest\/type\/paragraph\/footer_offices"
                    }
                },
                "uuid": [
                    {
                        "value": "b74810b1-00b7-49a0-a58e-f8a0bef1ffe2"
                    }
                ],
                "target_revision_id": "16"
            },
            {
                "_links": {
                    "self": {
                        "href": ""
                    },
                    "type": {
                        "href": "http:\/\/drupal.org\/rest\/type\/paragraph\/footer_offices"
                    }
                },
                "uuid": [
                    {
                        "value": "bc8c81eb-c5f4-494e-978b-e413080c3db5"
                    }
                ],
                "target_revision_id": "17"
            }
        ]
    },
    "field_social_button_facebook": [
        {
            "uri": "https:\/\/www.facebook.com\/adcisolutions\/",
            "title": "",
            "options": []
        }
    ],
    "field_social_button_instagram": [
        {
            "uri": "https:\/\/www.instagram.com\/adcisolutions",
            "title": "",
            "options": []
        }
    ],
    "field_social_button_linkedin": [
        {
            "uri": "https:\/\/www.linkedin.com\/company\/adci-solutions",
            "title": "",
            "options": []
        }
    ],
    "field_social_button_twitter": [
        {
            "uri": "https:\/\/twitter.com\/adcisolutions",
            "title": "",
            "options": []
        }
    ]
}
