{
    "_links": {
        "self": {
            "href": ""
        },
        "type": {
            "href": "http:\/\/drupal.org\/rest\/type\/paragraph\/footer_offices"
        },
        "http:\/\/drupal.org\/rest\/relation\/paragraph\/footer_offices\/uid": [
            {
                "href": "http:\/\/default\/user\/1?_format=hal_json",
                "lang": "en"
            }
        ],
        "http:\/\/drupal.org\/rest\/relation\/paragraph\/footer_offices\/revision_uid": [
            {
                "href": "http:\/\/default\/user\/1?_format=hal_json"
            }
        ]
    },
    "id": [
        {
            "value": 16
        }
    ],
    "uuid": [
        {
            "value": "b74810b1-00b7-49a0-a58e-f8a0bef1ffe2"
        }
    ],
    "revision_id": [
        {
            "value": 16
        }
    ],
    "type": [
        {
            "target_id": "footer_offices"
        }
    ],
    "langcode": [
        {
            "value": "en",
            "lang": "en"
        }
    ],
    "_embedded": {
        "http:\/\/drupal.org\/rest\/relation\/paragraph\/footer_offices\/uid": [
            {
                "_links": {
                    "self": {
                        "href": "http:\/\/default\/user\/1?_format=hal_json"
                    },
                    "type": {
                        "href": "http:\/\/drupal.org\/rest\/type\/user\/user"
                    }
                },
                "uuid": [
                    {
                        "value": "a0e52d37-12ae-414e-9c6a-fff46560a105"
                    }
                ],
                "lang": "en"
            }
        ],
        "http:\/\/drupal.org\/rest\/relation\/paragraph\/footer_offices\/revision_uid": [
            {
                "_links": {
                    "self": {
                        "href": "http:\/\/default\/user\/1?_format=hal_json"
                    },
                    "type": {
                        "href": "http:\/\/drupal.org\/rest\/type\/user\/user"
                    }
                },
                "uuid": [
                    {
                        "value": "a0e52d37-12ae-414e-9c6a-fff46560a105"
                    }
                ]
            }
        ]
    },
    "status": [
        {
            "value": true,
            "lang": "en"
        }
    ],
    "created": [
        {
            "value": "2018-03-23T02:52:42+00:00",
            "lang": "en",
            "format": "Y-m-d\\TH:i:sP"
        }
    ],
    "parent_id": [
        {
            "value": "6"
        }
    ],
    "parent_type": [
        {
            "value": "block_content"
        }
    ],
    "parent_field_name": [
        {
            "value": "field_footer_offices"
        }
    ],
    "default_langcode": [
        {
            "value": true,
            "lang": "en"
        }
    ],
    "revision_translation_affected": [
        {
            "value": true,
            "lang": "en"
        }
    ],
    "field_office_dist1": [
        {
            "value": "No 00 00 Street Name"
        }
    ],
    "field_office_dist2": [
        {
            "value": "District, City, Country"
        }
    ],
    "field_office_phone": [
        {
            "value": "555 900 00 00"
        }
    ],
    "field_office_title": [
        {
            "value": "Office 2"
        }
    ]
}
